^C:\USERS\WOLK1\ONEDRIVE\РАБОЧИЙ СТОЛ\NEW FOLDER (3)\MHNFX\X64\DEBUG\MHNFX.OBJ
C:\USERS\WOLK1\ONEDRIVE\Рабочий стол\NEW FOLDER (3)\MHNFX\X64\DEBUG\MHNFX.EXE
C:\USERS\WOLK1\ONEDRIVE\Рабочий стол\NEW FOLDER (3)\MHNFX\X64\DEBUG\MHNFX.ILK
C:\USERS\WOLK1\ONEDRIVE\Рабочий стол\NEW FOLDER (3)\MHNFX\X64\DEBUG\MHNFX.PDB
